{
  "iisSettings": {
    "windowsAuthentication": false,
    "anonymousAuthentication": true,
    "iisExpress": {
      "applicationUrl": "http://localhost:50352/",
      "sslPort": 0
    }
  },
  "profiles": {
    "IIS Express": {
      "commandName": "IISExpress",
      "launchBrowser": true,
      "launchUrl": "swagger/",
      "environmentVariables": {
        "jbpmUrl": "http://10.130.1.139:8080/jbpm-console/rest/",
        "ASPNETCORE_ENVIRONMENT": "Development",
        "user": "admin",
        "pass": "admin"
      }
    },
    "web": {
      "commandName": "Project",
      "launchBrowser": true,
      "launchUrl": "http://localhost:5000/swagger/",
      "environmentVariables": {
        "ASPNETCORE_ENVIRONMENT": "Development"
      }
    }
  }
}